Cross Validation
…
Types of cross-validation

k-fold: Split data into k samples

Monte Carlo (mc): Randomly split data into train and test as many times as you want

df_split <-
  df %>%
  crossv_mc(n = 50) 

df_split

## # A tibble: 50 x 3
##    train      test       .id  
##    <list>     <list>     <chr>
##  1 <resample> <resample> 01   
##  2 <resample> <resample> 02   
##  3 <resample> <resample> 03   
##  4 <resample> <resample> 04   
##  5 <resample> <resample> 05   
##  6 <resample> <resample> 06   
##  7 <resample> <resample> 07   
##  8 <resample> <resample> 08   
##  9 <resample> <resample> 09   
## 10 <resample> <resample> 10   
## #  with 40 more rows

Fit model to training data

df_split_model <-
  df_split %>%
  mutate(model = map(train, ~lm(y~x, data = .))) 

df_split_model

## # A tibble: 50 x 4
##    train      test       .id   model 
##    <list>     <list>     <chr> <list>
##  1 <resample> <resample> 01    <lm>  
##  2 <resample> <resample> 02    <lm>  
##  3 <resample> <resample> 03    <lm>  
##  4 <resample> <resample> 04    <lm>  
##  5 <resample> <resample> 05    <lm>  
##  6 <resample> <resample> 06    <lm>  
##  7 <resample> <resample> 07    <lm>  
##  8 <resample> <resample> 08    <lm>  
##  9 <resample> <resample> 09    <lm>  
## 10 <resample> <resample> 10    <lm>  
## #  with 40 more rows
Want to compare RMSE on train and test data

\[RMSE = \sqrt{\frac{1}{n} \sum (\widehat{y_i} - y_i)^2} \]

# Change from long to wide and calculate rmse
df_split_resid <- 
  df_split_model %>%
  gather(key = split, value = data, train, test) %>%
  mutate(
    rmse = map2_dbl(model, data, rmse)
  ) 

df_split_resid

## # A tibble: 100 x 5
##    .id   model  split data        rmse
##    <chr> <list> <chr> <list>     <dbl>
##  1 01    <lm>   train <resample>  1.35
##  2 02    <lm>   train <resample>  1.40
##  3 03    <lm>   train <resample>  1.31
##  4 04    <lm>   train <resample>  1.33
##  5 05    <lm>   train <resample>  1.33
##  6 06    <lm>   train <resample>  1.40
##  7 07    <lm>   train <resample>  1.41
##  8 08    <lm>   train <resample>  1.35
##  9 09    <lm>   train <resample>  1.35
## 10 10    <lm>   train <resample>  1.32
## #  with 90 more rows

df_rmse <- 
  df_split_resid %>%
  select(.id, split, rmse) %>%
  unnest()

df_rmse

## # A tibble: 100 x 3
##    .id   split  rmse
##    <chr> <chr> <dbl>
##  1 01    train  1.35
##  2 02    train  1.40
##  3 03    train  1.31
##  4 04    train  1.33
##  5 05    train  1.33
##  6 06    train  1.40
##  7 07    train  1.41
##  8 08    train  1.35
##  9 09    train  1.35
## 10 10    train  1.32
## #  with 90 more rows
…
df_split_model <-
  df_split %>%
  mutate(model1 = map(train, ~lm(y~x, data = .)),
         model2 = map(train, ~lm(y~poly(x,2), data = .)),
         model3 = map(train, ~lm(y~poly(x,3), data = .)),
         model4 = map(train, ~lm(y~poly(x,4), data = .))) 

Change models from wide to long

df_long_model <- df_split_model %>%
  gather(key = model_name, value = model, model1:model4) 

df_long_model

## # A tibble: 200 x 5
##    train      test       .id   model_name model 
##    <list>     <list>     <chr> <chr>      <list>
##  1 <resample> <resample> 01    model1     <lm>  
##  2 <resample> <resample> 02    model1     <lm>  
##  3 <resample> <resample> 03    model1     <lm>  
##  4 <resample> <resample> 04    model1     <lm>  
##  5 <resample> <resample> 05    model1     <lm>  
##  6 <resample> <resample> 06    model1     <lm>  
##  7 <resample> <resample> 07    model1     <lm>  
##  8 <resample> <resample> 08    model1     <lm>  
##  9 <resample> <resample> 09    model1     <lm>  
## 10 <resample> <resample> 10    model1     <lm>  
## #  with 190 more rows

df_long_model <- df_long_model %>%
  gather(key = split, value = data, train, test)

df_long_model

## # A tibble: 400 x 5
##    .id   model_name model  split data      
##    <chr> <chr>      <list> <chr> <list>    
##  1 01    model1     <lm>   train <resample>
##  2 02    model1     <lm>   train <resample>
##  3 03    model1     <lm>   train <resample>
##  4 04    model1     <lm>   train <resample>
##  5 05    model1     <lm>   train <resample>
##  6 06    model1     <lm>   train <resample>
##  7 07    model1     <lm>   train <resample>
##  8 08    model1     <lm>   train <resample>
##  9 09    model1     <lm>   train <resample>
## 10 10    model1     <lm>   train <resample>
## #  with 390 more rows

rmse_by_model <- 
  df_long_model %>%
  mutate(rmse = map2_dbl(model, data, rmse) ) %>%
  select(.id, model_name, split, rmse) %>%
  unnest()  
  
rmse_by_model

## # A tibble: 400 x 4
##    .id   model_name split  rmse
##    <chr> <chr>      <chr> <dbl>
##  1 01    model1     train  1.35
##  2 02    model1     train  1.40
##  3 03    model1     train  1.31
##  4 04    model1     train  1.33
##  5 05    model1     train  1.33
##  6 06    model1     train  1.40
##  7 07    model1     train  1.41
##  8 08    model1     train  1.35
##  9 09    model1     train  1.35
## 10 10    model1     train  1.32
## #  with 390 more rows
…
Y <- X%*%beta + rnorm(n, sd = .5)

sim_vs <- as_tibble(cbind(Y,X))

## Warning: `as_tibble.matrix()` requires a matrix with column names or a `.name_repair` argument. Using compatibility `.name_repair`.
## This warning is displayed once per session.

names(sim_vs) <- c("y", paste0("x", 1:p))
print(sim_vs)

## # A tibble: 50 x 31
##         y      x1      x2      x3      x4      x5     x6     x7      x8
##     <dbl>   <dbl>   <dbl>   <dbl>   <dbl>   <dbl>  <dbl>  <dbl>   <dbl>
##  1 -0.658 -0.227  -0.0429 -0.285   0.217  -0.0502  0.365  0.804 -0.222 
##  2 -1.52   1.45    0.0360  1.56    1.55   -1.72   -0.806 -0.360 -1.43  
##  3 -3.83  -1.23   -0.769   0.161   0.0460  1.17    0.354 -1.23  -0.705 
##  4  2.27   0.880   0.532   0.383   0.395   0.0398 -0.150 -1.37   0.807 
##  5  5.30  -0.0348  1.77    0.786   0.980   0.551   0.795 -0.936  0.159 
##  6  0.385 -2.10    0.0899 -0.0411  0.388  -0.118  -0.864 -1.48   0.0690
##  7  1.64   0.274   0.632  -1.53   -0.149  -0.468  -0.217 -0.840 -0.535 
##  8  3.01  -0.419   0.810   0.771  -0.193  -2.00    0.284 -0.879  1.03  
##  9  5.03   0.472   1.66    0.0757  0.351   2.45    0.739  0.596  0.369 
## 10  6.94   0.566   2.37   -0.819   0.0849  0.290   0.163 -2.75  -1.03  
## #  with 40 more rows, and 22 more variables: x9 <dbl>, x10 <dbl>,
## #   x11 <dbl>, x12 <dbl>, x13 <dbl>, x14 <dbl>, x15 <dbl>, x16 <dbl>,
## #   x17 <dbl>, x18 <dbl>, x19 <dbl>, x20 <dbl>, x21 <dbl>, x22 <dbl>,
## #   x23 <dbl>, x24 <dbl>, x25 <dbl>, x26 <dbl>, x27 <dbl>, x28 <dbl>,
## #   x29 <dbl>, x30 <dbl>
…
print(sim_model)

## # A tibble: 100 x 33
##    train test  .id   model_x2 model_x2_x8 model_x2_x8_x5 model_x2_x8_x5_
##    <lis> <lis> <chr> <list>   <list>      <list>         <list>          
##  1 <res <res 001   <lm>     <lm>        <lm>           <lm>            
##  2 <res <res 002   <lm>     <lm>        <lm>           <lm>            
##  3 <res <res 003   <lm>     <lm>        <lm>           <lm>            
##  4 <res <res 004   <lm>     <lm>        <lm>           <lm>            
##  5 <res <res 005   <lm>     <lm>        <lm>           <lm>            
##  6 <res <res 006   <lm>     <lm>        <lm>           <lm>            
##  7 <res <res 007   <lm>     <lm>        <lm>           <lm>            
##  8 <res <res 008   <lm>     <lm>        <lm>           <lm>            
##  9 <res <res 009   <lm>     <lm>        <lm>           <lm>            
## 10 <res <res 010   <lm>     <lm>        <lm>           <lm>            
## #  with 90 more rows, and 26 more variables:
## #   model_x2_x8_x5_x1_x21 <list>, model_x2_x8_x5_x1_x21_x15 <list>,
## #   model_x2_x8_x5_x1_x21_x15_x24 <list>,
## #   model_x2_x8_x5_x1_x21_x15_x24_x6 <list>,
## #   model_x2_x8_x5_x1_x21_x15_x24_x6_x22 <list>,
## #   model_x2_x8_x5_x1_x21_x15_x24_x6_x22_x7 <list>,
## #   model_x2_x8_x5_x1_x21_x15_x24_x6_x22_x7_x18 <list>,
## #   model_x2_x8_x5_x1_x21_x15_x24_x6_x22_x7_x18_x4 <list>,
## #   model_x2_x8_x5_x1_x21_x15_x24_x6_x22_x7_x18_x4_x13 <list>,
…
