Multilevel Modeling in R
…
Drilling down, we have 2 pitch measurements for each scenario per subject.

politeness_data %>% group_by(subject,scenario) %>% count()

## # A tibble: 42 x 3
## # Groups:   subject, scenario [42]
##    subject scenario     n
##    <fct>   <fct>    <int>
##  1 F1      1            2
##  2 F1      2            2
##  3 F1      3            2
##  4 F1      4            2
##  5 F1      5            2
##  6 F1      6            2
##  7 F1      7            2
##  8 F2      1            2
##  9 F2      2            2
## 10 F2      3            2
## #  with 32 more rows
…
